[gd_scene load_steps=3 format=3 uid="uid://bhq56tra7geh6"]

[ext_resource type="Script" path="res://movable_block/lock_point.gd" id="1_j82tg"]
[ext_resource type="Texture2D" uid="uid://d1w8pwu2dppjr" path="res://note_left.png" id="2_n70oy"]

[node name="LockPoint" type="Node2D"]
script = ExtResource("1_j82tg")

[node name="Sprite2D" type="Sprite2D" parent="."]
modulate = Color(1, 0.364706, 1, 1)
position = Vector2(5.96046e-08, -5.96046e-08)
scale = Vector2(0.5, 0.5)
texture = ExtResource("2_n70oy")
