[gd_scene load_steps=4 format=3 uid="uid://d0pmfxkc7nag"]

[ext_resource type="Texture2D" uid="uid://cn8b5y3p31wlm" path="res://tiles/blank.png" id="1_a4pcy"]
[ext_resource type="Script" path="res://movable_block/movable_block.gd" id="1_vqxoe"]

[sub_resource type="RectangleShape2D" id="RectangleShape2D_euakw"]
size = Vector2(24, 8)

[node name="MovableBlock" type="Node2D" groups=["global_song_listener"]]
script = ExtResource("1_vqxoe")

[node name="Sprite2D" type="Sprite2D" parent="."]
modulate = Color(0.988235, 0.784314, 0.772549, 1)
scale = Vector2(3, 1)
texture = ExtResource("1_a4pcy")

[node name="Area2D" type="Area2D" parent="."]

[node name="CollisionShape2D" type="CollisionShape2D" parent="Area2D"]
shape = SubResource("RectangleShape2D_euakw")

[node name="Node2D" type="Node2D" parent="."]
