[gd_scene load_steps=3 format=3 uid="uid://dudgercnu77gi"]

[ext_resource type="PackedScene" uid="uid://cdxc8l4kpj8xe" path="res://rooms/room_base.tscn" id="1_q0d46"]
[ext_resource type="PackedScene" uid="uid://ccjronmfi7stq" path="res://flute_door/flute_door.tscn" id="2_v0y62"]

[node name="PuzzleRoom" instance=ExtResource("1_q0d46")]

[node name="Tiles" parent="." index="0"]
layer_0/tile_data = PackedInt32Array(0, 2, 0, 65536, 2, 0, 131072, 2, 0, 196608, 2, 0, 1, 2, 0, 2, 2, 0, 3, 2, 0, 4, 2, 0, 6, 2, 0, 7, 2, 0, 8, 2, 0, 9, 2, 0, 327680, 2, 0, 393216, 2, 0, 458752, 2, 0, 524288, 2, 0, 589824, 2, 0, 655360, 2, 0, 262144, 2, 0, 10, 2, 0, 11, 2, 0, 12, 2, 0, 13, 2, 0, 14, 2, 0, 15, 2, 0, 16, 2, 0, 17, 2, 0, 18, 2, 0, 19, 2, 0, 20, 2, 0, 21, 2, 0, 22, 2, 0, 23, 2, 0, 24, 2, 0, 25, 2, 0, 26, 2, 0, 27, 2, 0, 28, 2, 0, 29, 2, 0, 30, 2, 0, 31, 2, 0, 1310720, 2, 0, 1245184, 2, 0, 1179648, 2, 0, 1114112, 2, 0, 1048576, 2, 0, 983040, 2, 0, 917504, 2, 0, 851968, 2, 0, 786432, 2, 0, 720896, 2, 0, 1376256, 2, 0, 1638400, 2, 0, 1703936, 2, 0, 1769472, 2, 0, 1835008, 2, 0, 1900544, 2, 0, 1900545, 2, 0, 1900546, 2, 0, 1900547, 2, 0, 1900548, 2, 0, 1900549, 2, 0, 1900569, 2, 0, 1900573, 2, 0, 1900575, 2, 0, 1900550, 2, 0, 1900551, 2, 0, 1900552, 2, 0, 1900553, 2, 0, 1900554, 2, 0, 1900561, 2, 0, 1900560, 2, 0, 1900559, 2, 0, 1900558, 2, 0, 1900557, 2, 0, 1900556, 2, 0, 1900555, 2, 0, 1900565, 2, 0, 1900566, 2, 0, 1900564, 2, 0, 1900563, 2, 0, 1900562, 2, 0, 1900567, 2, 0, 1900568, 2, 0, 1900570, 2, 0, 1900571, 2, 0, 1900572, 2, 0, 1900574, 2, 0, 1835039, 2, 0, 1769503, 2, 0, 1703967, 2, 0, 1638431, 2, 0, 1572895, 2, 0, 1507359, 2, 0, 1441823, 2, 0, 1376287, 2, 0, 1310751, 2, 0, 1245215, 2, 0, 1179679, 2, 0, 1114143, 2, 0, 1048607, 2, 0, 983071, 2, 0, 917535, 2, 0, 851999, 2, 0, 786463, 2, 0, 720927, 2, 0, 655391, 2, 0, 589855, 2, 0, 524319, 2, 0, 458783, 2, 0, 65567, 2, 0, 131103, 2, 0, 196639, 2, 0, 262175, 2, 0, 327711, 2, 0, 393247, 2, 0, 1441792, 2, 0, 1507328, 2, 0, 1572864, 2, 0, 1835021, 2, 0, 1835020, 2, 0, 1835023, 2, 0, 1835022, 2, 0, 1835024, 2, 0, 1572880, 2, 0, 1572881, 2, 0, 1835025, 2, 0, 1572882, 2, 0, 1572883, 2, 0, 1572884, 2, 0, 1572885, 2, 0, 1572886, 2, 0, 1572887, 2, 0, 1572888, 2, 0, 1572889, 2, 0, 1572890, 2, 0, 1638427, 2, 0, 1638428, 2, 0, 1638429, 2, 0, 1572893, 2, 0, 1572894, 2, 0, 1572892, 2, 0, 1572891, 2, 0, 1638424, 2, 0, 1638423, 2, 0, 1638425, 2, 0, 1638426, 2, 0, 1703965, 2, 0, 1703966, 2, 0, 1638430, 2, 0, 1703960, 2, 0, 1703961, 2, 0, 1703962, 2, 0, 1703963, 2, 0, 1703964, 2, 0, 1769501, 2, 0, 1703959, 2, 0, 1769495, 2, 0, 1835031, 2, 0, 1835032, 2, 0, 1769496, 2, 0, 1769497, 2, 0, 1769498, 2, 0, 1769499, 2, 0, 1769500, 2, 0, 1769502, 2, 0, 1835038, 2, 0, 1835037, 2, 0, 1835036, 2, 0, 1835035, 2, 0, 1835033, 2, 0, 1835034, 2, 0, 1835026, 2, 0, 1835028, 2, 0, 1835029, 2, 0, 1835030, 2, 0, 1835027, 2, 0, 1835009, 2, 0, 1835010, 2, 0, 1835011, 2, 0, 1835012, 2, 0, 1835013, 2, 0, 1835014, 2, 0, 1835015, 2, 0, 1835016, 2, 0, 1835017, 2, 0, 1835018, 2, 0, 1835019, 2, 0, 1179649, 2, 0, 1245185, 2, 0, 1310721, 2, 0, 1376257, 2, 0, 1441793, 2, 0, 1507329, 2, 0, 1572865, 2, 0, 1769473, 2, 0, 1703937, 2, 0, 1638401, 2, 0, 1048577, 2, 0, 1114113, 2, 0, 1441794, 2, 0, 1441795, 2, 0, 1441796, 2, 0, 1441797, 2, 0, 1769476, 2, 0, 1769475, 2, 0, 1769474, 2, 0, 1376282, 2, 0, 1441818, 2, 0, 1507354, 2, 0, 1376286, 2, 0, 1376285, 2, 0, 1376284, 2, 0, 1376283, 2, 0, 1441819, 2, 0, 1507355, 2, 0, 1507356, 2, 0, 1507357, 2, 0, 1507358, 2, 0, 1441822, 2, 0, 1441821, 2, 0, 917505, 2, 0, 983041, 2, 0, 851969, 2, 0, 1441798, 2, 0, 1441799, 2, 0, 1441800, 2, 0, 1376270, 2, 0, 1441806, 2, 0, 1572878, 2, 0, 1376271, 2, 0, 1441807, 2, 0, 1769492, 2, 0, 1769493, 2, 0, 1769494, 2, 0, 1769489, 2, 0, 1769490, 2, 0, 1769491, 2, 0, 1769486, 2, 0, 1769487, 2, 0, 1769488, 2, 0, 1769483, 2, 0, 1769484, 2, 0, 1769485, 2, 0, 1769480, 2, 0, 1769481, 2, 0, 1769482, 2, 0, 1769477, 2, 0, 1769478, 2, 0, 1769479, 2, 0, 65559, 2, 0, 65560, 2, 0, 65561, 2, 0, 131097, 2, 0, 131098, 2, 0, 131099, 2, 0, 196635, 2, 0, 196636, 2, 0, 262172, 2, 0, 262174, 2, 0, 196638, 2, 0, 131102, 2, 0, 65566, 2, 0, 65565, 2, 0, 65564, 2, 0, 65563, 2, 0, 65562, 2, 0, 131100, 2, 0, 196637, 2, 0, 131101, 2, 0, 327686, 2, 0, 1441820, 2, 0, 1572879, 2, 0, 1507343, 2, 0, 1507342, 2, 0, 1638419, 2, 0, 1638418, 2, 0, 1638422, 2, 0, 1638421, 2, 0, 1703957, 2, 0, 1703956, 2, 0, 1638420, 2, 0, 1638416, 2, 0, 1638415, 2, 0, 1638414, 2, 0, 1703950, 2, 0, 1703951, 2, 0, 1703952, 2, 0, 1703953, 2, 0, 1703954, 2, 0, 1703955, 2, 0, 1703958, 2, 0, 1638417, 2, 0, 1310738, 2, 0, 1310739, 2, 0, 1310740, 2, 0, 1310741, 2, 0, 1376278, 2, 0, 1376279, 2, 0, 1376280, 2, 0, 1376281, 2, 0, 1310749, 2, 0, 1310750, 2, 0, 1310748, 2, 0, 1310747, 2, 0, 1310746, 2, 0, 1310745, 2, 0, 1310744, 2, 0, 1310743, 2, 0, 1310742, 2, 0, 1376275, 2, 0, 1376274, 2, 0, 1376273, 2, 0, 1441808, 2, 0, 1507344, 2, 0, 1507345, 2, 0, 1507346, 2, 0, 1507347, 2, 0, 1507348, 2, 0, 1507349, 2, 0, 1507350, 2, 0, 1507351, 2, 0, 1507352, 2, 0, 1507353, 2, 0, 1441817, 2, 0, 1441816, 2, 0, 1376277, 2, 0, 1376276, 2, 0, 1441810, 2, 0, 1441809, 2, 0, 1441811, 2, 0, 1441812, 2, 0, 1441813, 2, 0, 1441814, 2, 0, 1441815, 2, 0, 1376272, 2, 0, 1572875, 2, 0, 1638411, 2, 0, 1703947, 2, 0, 1703948, 2, 0, 1638413, 2, 0, 1572877, 2, 0, 1572876, 2, 0, 1638412, 2, 0, 1703949, 2, 0, 1376264, 2, 0, 1310728, 2, 0, 1245192, 2, 0, 1179656, 2, 0, 1114120, 2, 0, 1114119, 2, 0, 1114118, 2, 0, 1114117, 2, 0, 1114116, 2, 0, 1114115, 2, 0, 1179651, 2, 0, 1245187, 2, 0, 1310722, 2, 0, 1376258, 2, 0, 1245186, 2, 0, 1179650, 2, 0, 1245188, 2, 0, 1245189, 2, 0, 1179654, 2, 0, 1179653, 2, 0, 1179652, 2, 0, 1310723, 2, 0, 1376259, 2, 0, 1376260, 2, 0, 1376261, 2, 0, 1376262, 2, 0, 1310726, 2, 0, 1310727, 2, 0, 1245191, 2, 0, 1179655, 2, 0, 1376263, 2, 0, 1245190, 2, 0, 1310724, 2, 0, 1310725, 2, 0, 1114136, 2, 0, 1179672, 2, 0, 1245208, 2, 0, 1114137, 2, 0, 1114138, 2, 0, 1114139, 2, 0, 1114140, 2, 0, 1114141, 2, 0, 1114142, 2, 0, 1179678, 2, 0, 1245214, 2, 0, 1245213, 2, 0, 1245212, 2, 0, 1179676, 2, 0, 1179675, 2, 0, 1179674, 2, 0, 1179673, 2, 0, 1245209, 2, 0, 1245210, 2, 0, 1245211, 2, 0, 1179677, 2, 0, 851994, 2, 0, 851995, 2, 0, 851996, 2, 0, 851997, 2, 0, 851988, 2, 0, 851989, 2, 0, 851990, 2, 0, 851991, 2, 0, 851992, 2, 0, 851993, 2, 0, 655381, 2, 0, 655380, 2, 0, 720916, 2, 0, 786452, 2, 0, 786453, 2, 0, 786454, 2, 0, 786455, 2, 0, 786456, 2, 0, 720920, 2, 0, 720919, 2, 0, 655383, 2, 0, 655382, 2, 0, 720917, 2, 0, 720918, 2, 0, 655384, 2, 0, 327688, 2, 0, 327687, 2, 0, 327685, 2, 0, 327684, 2, 0, 327683, 2, 0, 327682, 2, 0, 327681, 2, 0, 393217, 2, 0, 458753, 2, 0, 524289, 2, 0, 589825, 2, 0, 655361, 2, 0, 720897, 2, 0, 786433, 2, 0, 1114114, 2, 0, 1048584, 2, 0, 983048, 2, 0, 917512, 2, 0, 851976, 2, 0, 851975, 2, 0, 786439, 2, 0, 720903, 2, 0, 655367, 2, 0, 589831, 2, 0, 524295, 2, 0, 458759, 2, 0, 393223, 2, 0, 393224, 2, 0, 458760, 2, 0, 524296, 2, 0, 589832, 2, 0, 655368, 2, 0, 720904, 2, 0, 917511, 2, 0, 983047, 2, 0, 1048583, 2, 0, 1048582, 2, 0, 1048581, 2, 0, 1048580, 2, 0, 1048579, 2, 0, 983043, 2, 0, 917507, 2, 0, 851971, 2, 0, 786435, 2, 0, 720899, 2, 0, 655363, 2, 0, 589827, 2, 0, 524291, 2, 0, 458755, 2, 0, 458754, 2, 0, 393218, 2, 0, 524290, 2, 0, 589826, 2, 0, 655362, 2, 0, 720898, 2, 0, 786434, 2, 0, 851970, 2, 0, 917506, 2, 0, 983042, 2, 0, 1048578, 2, 0, 393219, 2, 0, 393220, 2, 0, 393221, 2, 0, 458757, 2, 0, 524293, 2, 0, 589829, 2, 0, 655365, 2, 0, 720901, 2, 0, 786437, 2, 0, 851973, 2, 0, 917509, 2, 0, 917508, 2, 0, 983044, 2, 0, 851972, 2, 0, 786436, 2, 0, 720900, 2, 0, 393222, 2, 0, 327689, 2, 0, 262159, 2, 0, 262160, 2, 0, 262161, 2, 0, 262162, 2, 0, 262163, 2, 0, 262164, 2, 0, 262165, 2, 0, 196629, 2, 0, 196630, 2, 0, 196631, 2, 0, 196632, 2, 0, 196633, 2, 0, 65552, 2, 0, 65551, 2, 0, 65550, 2, 0, 65549, 2, 0, 65548, 2, 0, 65547, 2, 0, 65546, 2, 0, 65545, 2, 0, 65544, 2, 0, 65543, 2, 0, 65542, 2, 0, 65541, 2, 0, 5, 2, 0, 65540, 2, 0, 65539, 2, 0, 65538, 2, 0, 65537, 2, 0, 131073, 2, 0, 196609, 2, 0, 262145, 2, 0, 262146, 2, 0, 196610, 2, 0, 131074, 2, 0, 131075, 2, 0, 196611, 2, 0, 262147, 2, 0, 262148, 2, 0, 196612, 2, 0, 131076, 2, 0, 131077, 2, 0, 196613, 2, 0, 262149, 2, 0, 262150, 2, 0, 196614, 2, 0, 131078, 2, 0, 131079, 2, 0, 196615, 2, 0, 262151, 2, 0, 262152, 2, 0, 196616, 2, 0, 131080, 2, 0, 131081, 2, 0, 196617, 2, 0, 262153, 2, 0, 196618, 2, 0, 131082, 2, 0, 131083, 2, 0, 196619, 2, 0, 196620, 2, 0, 131084, 2, 0, 131085, 2, 0, 196621, 2, 0, 196622, 2, 0, 131086, 2, 0, 131087, 2, 0, 196623, 2, 0, 196624, 2, 0, 131088, 2, 0, 131089, 2, 0, 65553, 2, 0, 65554, 2, 0, 131090, 2, 0, 196626, 2, 0, 196625, 2, 0, 196627, 2, 0, 131091, 2, 0, 65555, 2, 0, 65556, 2, 0, 131092, 2, 0, 196628, 2, 0, 131093, 2, 0, 65557, 2, 0, 65558, 2, 0, 131094, 2, 0, 131095, 2, 0, 131096, 2, 0, 458758, 2, 0, 524294, 2, 0, 589830, 2, 0, 655366, 2, 0, 720902, 2, 0, 786438, 2, 0, 851974, 2, 0, 917510, 2, 0, 983046, 2, 0, 983045, 2, 0, 524292, 2, 0, 458756, 2, 0, 589828, 2, 0, 655364, 2, 0, 917524, 2, 0, 983060, 2, 0, 1048596, 2, 0, 1179668, 2, 0, 1245204, 2, 0, 1245206, 2, 0, 1245207, 2, 0, 1179671, 2, 0, 1048601, 2, 0, 983066, 2, 0, 983067, 2, 0, 983068, 2, 0, 983069, 2, 0, 983070, 2, 0, 917534, 2, 0, 851998, 2, 0, 1048605, 2, 0, 917531, 196610, 1, 917530, 65538, 1, 917529, 2, 0, 917528, 2, 0, 917527, 2, 0, 917526, 2, 0, 917525, 2, 0, 983061, 2, 0, 1048597, 2, 0, 1114133, 2, 0, 1179669, 2, 0, 1245205, 2, 0, 1179670, 2, 0, 1114134, 2, 0, 1048599, 2, 0, 983064, 2, 0, 983065, 2, 0, 983063, 2, 0, 983062, 2, 0, 1048598, 2, 0, 1114135, 2, 0, 1048600, 2, 0, 917533, 196610, 1, 917532, 131074, 1, 1048603, 2, 0, 1048604, 2, 0, 1048606, 2, 0, 1048602, 2, 0, 1179666, 2, 0, 1245202, 2, 0, 1245203, 2, 0, 1179667, 2, 0, 1048589, 2, 0, 1048588, 2, 0, 1048587, 2, 0, 1048586, 2, 0, 1048585, 2, 0, 983049, 2, 0, 917513, 2, 0, 917514, 2, 0, 917515, 2, 0, 917516, 2, 0, 983052, 2, 0, 983053, 2, 0, 983051, 2, 0, 983050, 2, 0, 786440, 2, 0, 786444, 2, 0, 851980, 2, 0, 851979, 2, 0, 851978, 2, 0, 851977, 2, 0, 786441, 2, 0, 786442, 2, 0, 786443, 2, 0, 589841, 2, 0, 589842, 2, 0, 589843, 2, 0, 589844, 2, 0, 589845, 2, 0, 589846, 2, 0, 589847, 2, 0, 589848, 2, 0, 1114132, 2, 0, 983055, 2, 0, 983054, 2, 0, 1048590, 2, 0, 655370, 2, 0, 720906, 2, 0, 720905, 2, 0, 655369, 2, 0, 589839, 2, 0, 589840, 2, 0, 589833, 2, 0, 589834, 2, 0, 524298, 2, 0, 458762, 2, 0, 262157, 2, 0, 262158, 2, 0, 262156, 2, 0, 262155, 2, 0, 262154, 2, 0, 393225, 2, 0, 327690, 2, 0, 327691, 2, 0, 393226, 2, 0, 458761, 2, 0, 524297, 2, 0, 1048591, 2, 0, 655379, 2, 0, 655378, 2, 0, 655377, 2, 0, 720915, 2, 0)

[node name="Player" parent="." index="1"]
position = Vector2(23, 211)

[node name="FluteDoor" parent="." index="3" instance=ExtResource("2_v0y62")]
position = Vector2(237, 96)
dest_scene_path = "uid://blav1vmujc4i0"
dest_position = Vector2(20, 40)
