[gd_scene load_steps=5 format=3 uid="uid://cdxc8l4kpj8xe"]

[ext_resource type="Script" path="res://rooms/puzzle_room.gd" id="1_f0m1p"]
[ext_resource type="TileSet" uid="uid://cbgjaf3x8aopv" path="res://tiles/tiles.tres" id="1_spch4"]
[ext_resource type="PackedScene" uid="uid://bi5anosd8ydlp" path="res://player/player.tscn" id="2_lwe4a"]
[ext_resource type="Script" path="res://rooms/transmute_tiles.gd" id="3_poifx"]

[node name="PuzzleRoom" type="Node2D"]
script = ExtResource("1_f0m1p")

[node name="Tiles" type="TileMap" parent="."]
tile_set = ExtResource("1_spch4")
format = 2
layer_0/tile_data = PackedInt32Array(0, 2, 0, 65536, 2, 0, 131072, 2, 0, 196608, 2, 0, 1, 2, 0, 2, 2, 0, 3, 2, 0, 4, 2, 0, 5, 2, 0, 6, 2, 0, 7, 2, 0, 8, 2, 0, 9, 2, 0, 327680, 2, 0, 393216, 2, 0, 458752, 2, 0, 524288, 2, 0, 589824, 2, 0, 655360, 2, 0, 262144, 2, 0, 10, 2, 0, 11, 2, 0, 12, 2, 0, 13, 2, 0, 14, 2, 0, 15, 2, 0, 16, 2, 0, 17, 2, 0, 18, 2, 0, 19, 2, 0, 20, 2, 0, 21, 2, 0, 22, 2, 0, 23, 2, 0, 24, 2, 0, 25, 2, 0, 26, 2, 0, 27, 2, 0, 28, 2, 0, 29, 2, 0, 30, 2, 0, 31, 2, 0, 1310720, 2, 0, 1245184, 2, 0, 1179648, 2, 0, 1114112, 2, 0, 1048576, 2, 0, 983040, 2, 0, 917504, 2, 0, 851968, 2, 0, 786432, 2, 0, 720896, 2, 0, 1376256, 2, 0, 1638400, 2, 0, 1703936, 2, 0, 1769472, 2, 0, 1835008, 2, 0, 1900544, 2, 0, 1900545, 2, 0, 1900546, 2, 0, 1900547, 2, 0, 1900548, 2, 0, 1900549, 2, 0, 1900569, 2, 0, 1900573, 2, 0, 1900575, 2, 0, 1900550, 2, 0, 1900551, 2, 0, 1900552, 2, 0, 1900553, 2, 0, 1900554, 2, 0, 1900561, 2, 0, 1900560, 2, 0, 1900559, 2, 0, 1900558, 2, 0, 1900557, 2, 0, 1900556, 2, 0, 1900555, 2, 0, 1900565, 2, 0, 1900566, 2, 0, 1900564, 2, 0, 1900563, 2, 0, 1900562, 2, 0, 1900567, 2, 0, 1900568, 2, 0, 1900570, 2, 0, 1900571, 2, 0, 1900572, 2, 0, 1900574, 2, 0, 1835039, 2, 0, 1769503, 2, 0, 1703967, 2, 0, 1638431, 2, 0, 1572895, 2, 0, 1507359, 2, 0, 1441823, 2, 0, 1376287, 2, 0, 1310751, 2, 0, 1245215, 2, 0, 1179679, 2, 0, 1114143, 2, 0, 1048607, 2, 0, 983071, 2, 0, 917535, 2, 0, 851999, 2, 0, 786463, 2, 0, 720927, 2, 0, 655391, 2, 0, 589855, 2, 0, 524319, 2, 0, 458783, 2, 0, 65567, 2, 0, 131103, 2, 0, 196639, 2, 0, 262175, 2, 0, 327711, 2, 0, 393247, 2, 0, 1441792, 2, 0, 1507328, 2, 0, 1572864, 2, 0)

[node name="Player" parent="." instance=ExtResource("2_lwe4a")]
position = Vector2(126, 154)
z_index = 1

[node name="Camera" type="Camera2D" parent="."]
position = Vector2(128, 120)
current = true
zoom = Vector2(4, 4)

[node name="Transmute Tiles" type="Node2D" parent="." groups=["global_song_listener"]]
script = ExtResource("3_poifx")
tiles_path = NodePath("../Tiles")
song_pattern = [1, 1, 1]
